{
  "project_info": {
    "project_number": "413153915192",
    "firebase_url": "https://dmoat-61bbe.firebaseio.com",
    "project_id": "dmoat-61bbe",
    "storage_bucket": "dmoat-61bbe.appspot.com"
  },
  "client": [
    {
      "client_info": {
        "mobilesdk_app_id": "1:413153915192:android:e19efb61e456cf19",
        "android_client_info": {
          "package_name": "com.dmoat.app"
        }
      },
      "oauth_client": [
        {
          "client_id": "413153915192-3nh5ch5sdqgk9d2uebhnvs3nb3hnh8rh.apps.googleusercontent.com",
          "client_type": 1,
          "android_info": {
            "package_name": "com.dmoat.app",
            "certificate_hash": "2afad6d1ae1e84e522fe9fe918981db98533731b"
          }
        },
        {
          "client_id": "413153915192-6uomhfkbj5bu1bitffgsdqv8gr7rbopp.apps.googleusercontent.com",
          "client_type": 3
        }
      ],
      "api_key": [
        {
          "current_key": "AIzaSyCph04KaxjUNc6rpFhHwl2Vdj1gDBlbgRg"
        }
      ],
      "services": {
        "appinvite_service": {
          "other_platform_oauth_client": [
            {
              "client_id": "413153915192-6uomhfkbj5bu1bitffgsdqv8gr7rbopp.apps.googleusercontent.com",
              "client_type": 3
            },
            {
              "client_id": "413153915192-pc5kbbuebipcgcj0stj1tt1r5qnmcici.apps.googleusercontent.com",
              "client_type": 2,
              "ios_info": {
                "bundle_id": "com.dmoat.app",
                "app_store_id": "1260963418"
              }
            }
          ]
        }
      }
    },
    {
      "client_info": {
        "mobilesdk_app_id": "1:413153915192:android:f9ecbcd26ccae22b36d1cd",
        "android_client_info": {
          "package_name": "hardware.prytex.io"
        }
      },
      "oauth_client": [
        {
          "client_id": "413153915192-6uomhfkbj5bu1bitffgsdqv8gr7rbopp.apps.googleusercontent.com",
          "client_type": 3
        }
      ],
      "api_key": [
        {
          "current_key": "AIzaSyCph04KaxjUNc6rpFhHwl2Vdj1gDBlbgRg"
        }
      ],
      "services": {
        "appinvite_service": {
          "other_platform_oauth_client": [
            {
              "client_id": "413153915192-6uomhfkbj5bu1bitffgsdqv8gr7rbopp.apps.googleusercontent.com",
              "client_type": 3
            },
            {
              "client_id": "413153915192-pc5kbbuebipcgcj0stj1tt1r5qnmcici.apps.googleusercontent.com",
              "client_type": 2,
              "ios_info": {
                "bundle_id": "com.dmoat.app",
                "app_store_id": "1260963418"
              }
            }
          ]
        }
      }
    }
  ],
  "configuration_version": "1"
}